0d1401ea106177073dad3b964e17034680d9bc443e8b7691ee
19bad8cdc963ce0c17bf963cac067d05bd6394df742d8c4ec8
ac275b936e282c343d8f91be70c5532b3cbee53c0b09f258fc
a2526b37dbf14088b3ce3c5f7a1503086da0a24fc7f3e2c398
210c8c4efeaeddb39cddabf605a58045b0804f5d1b290cbebf
cf47e093b49c6c5822ce6960f09136a7aca90504b608cab8d8
abc0e8a37d4c0ab56978d63edcd1b035dc41896a6ac6f75a1e
f20c9a6e364a42558e814f0689699b8c41daa0fd92460b5764
d861c51cc81b29b32ea6a398450496a87e6a5cf2fc0e0348cc
13ab527b7ab137f227fa6673082291878c9dd66b2eca8a2c01
f1427d4eff6222ea1e0eeb96bef10eadbc2169c884a7d30a77
417344a9249dbfa3a3eb5a57c282af0b3687a680df1de45e46
b3f7a5d9098ddb4624aaf8686b400fb2a64412a7b46bce4b9a
71a8abf839170200414a21a18619eb92ae12a75ae44dbd957c
01d9aeb42bd7e3f7d63c685cd03b9b12f13c877da0ccd9425d
20f729fc4190affc54a71c7e9b9f367fc1ba7a0b96ea1d09b4
d53735fbe84fc8a00dca1fe2563c7f6c5b13acb5f80e6ded70
d96e94e173123707b1a87bc3cf29744441f59c7550c6ec6620
16e8b723767605acd5da4fa81b87d549694d915038d5bec1ec
b2dc22c75b55cb7959e09a178da041593571fb8178da46f0a2
c5ec870d5539881a1acdd017be09a12ec1642242854329c28c
cbdd1dc86d1cc34f734fcbbfaf370abd1261244f35e40f1cac
cc3386c7f45a57a34af33d696062822d702b5fe5df41a5800f
2ab4f7f004bb9afc150599589c11b0cfb323024fa44ffd740f
df2c60726becb699fccb141cf7518204b3586fbc85f1f9c635
1eba6f5ccae69fcd5cb18acb9d14bb3c5c1f92cb4e635eef64
5425fe9beebcbe8ee504f865b33cc0d2fe3fca69237796825c
2bff2f65b16cf44b98a4dbad5fc31b63916b51d421c11810f3
2d3ea861cdb4519a796a469dc500ef26878ec2444a7ca9248b
f0e2fc668e2aa4334909493f743cb29535f97f907e324b6bc1
f90befe1b348ad7ddb85dd6bec4f0db9c2e2969b8f9bc24723
0b77c2badfe7fa9dbe1acdc77dff1c3c763f9265809a889eaf
812093323683702ba54517e3c5fffc158fd9c20be5e22a9859
486675fde70ce08e33ca6b2835775a58504c344f2dfb6e49d6
51d2905443a68a0aede62e8ebd5a25c820c81ac1db0f64f5f3
daf748f8c6baf25210fbba1610dda7c9c451cdbcb74a2c8eac
cf1df820220df5bafece287c2ca8de142579c1ec5d222dd763
7d3badc43834db1acd17304c63fd6137e2aececfefcf34b10c
7897310ad4aa8dd9c474250c60cda17168a2fa9d4ce85824a8
1b759245d64e39dba01b05c2b8eb88a00f6ebb580018ac86d8
