0e62cd64fe8e1305a38fc94ad86673dd362521a2c6c85c98b7
c857357245ee09699c38e5a529374b3193f51df30426feeae4
aa59ce7616b00e14b97177527a2bbeb5819178d9140d5b4d52
60c9658a7fcd4bec0ba4342c0b9e625e2e6018cdbe89186d4b
799240948343da5fee0562a35f6fab14d96bba139aadb9a4e6
8f99ee8c3a8457b3cbce9f3e36a8ab7bfc8b3ac42bd3c6058a
8c6d077d9a7a1c3af2606f668d859cb68465af764f136ce8cd
153e3c163ac6a445d9d8aeae127a3a8a62b368d912c3caf272
4405ad8277c73143320edf3781f7319c23b259bbc5a79d1ddf
1d9a033c996308caaece8f25a5d30931a2e6d9f3d7120a90a8
d0fe461a6a4c85123c5dac21fbca3a32fa7c4008c7aaeebeb1
eb2af3285623d19828d94a000c05813f82fe3612c5059234d7
6be34dab20ca66337c619790992f5ad262d0d142e62de4d57a
5f37ca82a0ba67fb74dd8144e2c63696cfe340acb7ba841356
9ea5a68ba3c806905dde226b00532879f0514c820342d2c508
761508acb6eb6c0e92ee99197c77938f295c0d42fcf2020f3f
65acfa856113eba6222042efd78ba44a40c40ec23c38d3ff75
8b22f77b595bee6abf54a2df5e87d4519101aec0aec6bca89f
38506d76ce7f122ea8d4d35c09349555d2d5487e7ae189c883
8059c16e3c9e87e8ada005764e2cd20872258a0f32f858e911
ff90fa7b3d599c7364a51f53d170ce7cc286ffac7984e9889c
6f18446c39703d63ab84804e8281c3511886100001e85c81de
2c1919ca40c5aa8e32ba0bdec9b63f5f121322dc219546ee52
0382de885e8748daf1cf2dffc2198a8c1a23219ea244e59872
0b4ca9e25982ce652d6b461a75faf9c0897e60c6641aaea2fb
8deef7f172f7380de1ea451c458feb34dd9ac2114a65bcc0b3
227bf98a4880609cadbffb860e620dcf209e4b6e276af005c6
d209f845b67192dc734d9fc8f7afcfcc8f945cc0c6ad4cbf37
7df2ef6bdfe8116c071d93e1bfca343a62e160d18d15f3aaa8
a8c6ec589aa1a82d9495b60dec1ba1da6321b8c13a4e40db4a
d9506379157da59070699a03a59f87d5000c179630035a0fd1
ea23637b0862b7a4a280cc2351fc963ec8abc0088005497a52
90c3ba56edf38f75c31df4677b13b210c371afc6a45a689e54
8fff4fcb762fc7595aa611470cb87f0cdf56c18fc922bac439
cbc0fde0483aca6bc7d24a80e436daefb86312499440902638
27dea45ce96e0220c82c7347da0f556ede3d8a7a6e0671826d
df36e379682d3a789d32a6b302828fa927d6a97eff36e735c6
92a1dabef89bca1a892ba4295d2de9917e8d445ab2cebda51c
c90c09a91d35d44ec71445b1b668e199dba4ee927a3a000861
dbc22cfc38af7b81c8025c568370b81548a3b5ebed8ec66768
