115bc4fcd3f4b20a1b7f956463f72da61faa9a771d72ad70ff
189333f6217cf056e4efc7d6ee9d44e25241b6acf73273bb21
58117bc1ec26df9e3bdd6125f17b537c66c575d94ac1670707
947ad994713298efe4b93b5547b265ab5458e26a919e7da7d6
b6913cd6178651aa16a65ee3e73d8b3bc1241d4b695c349363
77b22388c530aa8f8fc895c94ca7648577d9df68ce8d3cef25
50ae3a913e7bfa29f9007472866273561f80dfdce32bcbc381
343ea3410edd0d1b31b159e67f7d5c94cf39b9acdaebda6724
83555cec940acc2a9bfedb37f73aa3b5f0545350468d52cf5d
7417abe90b65e5b0d4b6fca03c399d71a15f5e25cdbb635b6f
ad97687e22de13f62777289c3cf1c6fd381286b672f4cacb73
33e6ac43dc940b9d041a641798c7e53d27650717828574a489
c7fb28acbc9ce4e23755225f0f2bd24e962d2a60baaab71284
68843f34b9d7eb5d4691811810599b7bb918983c18b7d6cc18
bed81934eaef0d7521d7e4706f7050d245b9dce8928b02b45f
e14dd97f91b63d9a54878ca42737e882958b1e2963827303a0
930471138419e7e9c7592b22196d94d6c059bd68dfaf52abd1
3193952eb48efd783cd70a6e28f1ec545962bfb560b4bd16ae
d7ee8a6288506da2b2cedf8ccac708347bdeaaec7cdc5069b8
d9bff9f7a137c3b11ffbbd2be620e23aeb33402832f576b2bf
5de99feb28e0b3feb3a92870594cdaab306618532aa5135f64
a64679a45ec0271193c511826e7907ff1d2420233c7ce18f5d
990a8c7b7e0c0a83c1e5c24dc8f6cdb84ae680137ef7880549
bd514cd2add169557026f649549ceaf210cd7b8af1d6b28d8c
caa13d9d4365c599f848bc27f68a4f51906d8141175e845dab
ffc3d8454c6af6fcd05d274e67bc85356e5085c2284f17174d
722b3bea4b620ccddda6e1d54bb596af78598854f6f571af3c
f7444a58768675d66826b441e470a6dcec944313b92779eefc
c3e1d9f90389019f4599bf8e51c9a1be8da523251b4806c734
624314d75b9aa84ee42e7521548c4a8ddf6c3267f16337e08f
df108fb7204ce88db5e26a335c831d3e778bee6a4646c53a97
2027bfdba64a0805bc7daba74cc8efbe2d4ef3e760e7afe0a7
799a9b33728647a81187603708c1adecc7beb0f77a8844efcd
228b60423733c7551dc3137bf44af889c884b16bb3162230ce
fa63ba8b9cc825d6ce93d51717273cbad2218c7218b3052984
a0c5c9d6e86fe89a9034f3c307d189b2f04fcc80fd8cb185a8
d103d9bbbc4c2feacd2a95f665a871b3b900be79e42238a694
5d17d0160857077c8c0ec279d224ef6cfe94e274f0349b3ab1
d61a6ad2fbbbc6af553f1d5eed9e722486958cc8341dbafd46
36986d169efa1ba71f02932c73bf991c82cafd969a7fb205b0
