504287a47be4b0f88cbec8addb10cc88a068126fdc8ea9f3c3
feb125a2095d14418b206a31034a79cb9692fbd230a9ef46f2
3b3d55c2b192d753f4a350d3deb809cbb0533ff67d89d26b0a
b6144ece2bc872aaf499dcfd3c233a57808bbab2a5ce5b0cda
55a0b8e90c038e1286948c8d3955e1efe448173bf5fe6c7e78
a8e95900445b481fb561b81149478ea440c84b3de74eaa5693
d58cd9db88d17a149e83627a85203b20d616b0d9a23d708fe6
a1de15905b3cd36fd81225fa1982553f901e5f02b8d724f6f6
d8e99fe81b033fd93627b873f09e1d2ddf00c6871f6b085fa3
42f9ec836eedc6d9a9b2f09bd9369be47eabd6f33918981c6f
1d4c01138f34a9f6a98d67da0890230789a5ba25ff73005eda
7e97128bc6e6fd74620540af73f9a4279567b1fd93a91f6e79
98db8c4ee8d5bf2bbe42361506c362127c59f6480ed2e961da
2628f1a444bb620c209649f7cb5bafccca4533128f646a8b4c
bbdd42829bc1ee24e656651b8227e8b8166212317d8e2fa35f
4ebd48b573e32b612905eb81480372ffe28a52af04e5d4f04f
aa9806aa6c7035e7583992d813e390fe6d8e1a4b68b7d072c4
151b756a9e01cd9eb887cf14adc9ba3bcab7130c9b006ef681
9d5f239df044a140d5d26b6ae4c05a88ea673c439709c896ec
aaaa29f2602082f40c75ed72562156f015e9d0c23fedab772e
136b4d39c0659500a37d9f8b21fef8c98961471471d04ab58a
fefac77c1e63d903a3cadfbd6b919cef997f2d384410b852fc
342f9e4793ced79bef13d9f8368d1929e739a2878d7623ddf9
9b756b7d4232d944a4b3d247f7efaa4dcf6ef8a8c62f5614fd
b9fe00edb8e1b1e1f280bbebeae91b658ad8435ba1f8a92c12
366fd662ebddae3ce7af4f6f454d9ebb059c25b28811a53670
80e950d32a869473e137dd75de62418fe25d27588ef490a913
1087ccdb161adebde0258fe865f7b4950a91d39a9babb699ec
b064a382a0fc2898e88c2f37939df1d30b02b7259198a9ef94
d2605f565b3ccc3414c3e5911e5d87ee67e258ee243d9fe7fb
8a42ab94fb8f8c844e7319e04da2be9122ad9ebcf8683f4e39
d0874739acec0a9fc908a574aee61983b9b92856e006e0cf91
1d778a0c3e698467e2c0d9ac8aad47b78d0df5afb43ac97554
6a6fdfc1c7f630c1bcae7abdb3fef5672f81e8a461d7653402
79a0f4238605ffbc4f088f6727c5cb41d8965bbc7461f4bbe5
3667d7381fb4295bd1ad0e1ded5be3cc5a73af031dc296de90
0bc66f88857f4d75d5289cca65acabc130eddd51977efd310f
2c002a79746bab7b9d0f8a3908f90d988a7ac058d54df1d8c2
2435e1201e4edbb8d23a95f268eebd5b8030bab185dd0ac5ea
8de2284421d0ef7555bf74bd5b65cf636db7dd736d1d49bc64
