75261e7aee30bcaba121108b2f835448e0ca735e423d421d15
573d4ca33f9c175fa0a18a5951ea0d7bf12569278ad7575897
5d2e2914d9e7e02ab40b8807e50d782b166f163488f8b28773
9012ea2dc67b2ecc3f9fa8bc473246527a537d306ca4d8451d
88622582b0839218a800d811795fa3e2f952fb87559f1650cf
d3156bb16cfb40154d5d03ea528d7406931b31c5f94bb85e06
e408afe6e3a30dc108a0c63d3cac116081400d1cd15aba9120
39f127535e3ae0759e5bd5a0305a4819d24d01a1bd2c80b623
3cc2c93b0070d8ad571f7f7a08b26c039742a3794492ab3a15
f584633b4c69244eabe716c28b60382ee0a04fd4cf43dcd8e5
6aaa624b98f4d28d9734028bfa7ed694c19feab510663842b0
cb00bea4d4e0bbccaec526e136364be33178162adba070b14a
ec8dbd919d1db7d569662e626bc34d1b60bb06b323bf8264a8
bcbef1a16f4aad065b8726825729f72bb48463f64171c8cfca
8bacd54c65e2ceda1de06c86eddebfe89177b38d8260cc2e0e
7c3eb5ca4397523bdd67ce11ba5de3209aacfe8e3677e0c991
ce833d1db7669ee44b7986d95a095ed2ae84e184ce20e850df
592bba3e01e1b0e241c1805fc0e9db1c953c0e93780d88df7f
af252b97cbf3bcddd18865ef3fa7b8bb8274b739447a5fc1f6
3ae45cedcfb83cb841bc81739c480b4d7820e06c75fe7c2fd6
e9aba9afa5bbd558f76b7f1d2fb172a80dcd425ddc36501d97
a801eb3a7626ed8cc26a62f44e29cbc1c3a4ce9b566e761968
05f0855b13f899727d218fa345d3de2acae4fb22f9f3052d8a
a04aec04e85b5033aac0c2d7b2305c43400384c73e2708c037
6f0311d6759be23a2393525305186fb5d3fb352d21fccc9371
db9056f44d237a7882e92438f3f6efc70d3a4e8e44fde70ca6
7df7b9b652d906fbf328952b26c638588d46b34614fa971070
a8e26827d90d884b565e75b3d408161ebbd1a7b3da7e62021a
42a040db214a418e6f70876a95960aa76b1de6eaa12bdade20
4c634ada87fd1cb9fcdaea8186963e0f376c6381863e5dfb08
06a5b8d6978eb0a98a66f7d05f7fd8561f2dbaa4c23798f185
25f4c1a76e106f863c3882d840cee289b5c9d19c1f65424803
9d7b7ea0dcc24e3aacbd5e10242f75548bd9152fa5e9f4447e
26042d0595e56cd348f7186e28a8659355850355828324ab2c
b2699e4e44e7e9c399ad159126d123ca0f21a7107f1930f82f
157ce253ef92fcc28feef97b1e97b8aafa33873888c3ce4b0b
debfccb802312514c1a5577d62c7b75eb287b23c5a018b2f8a
2c73e771780fa572bdf25697349dd880336b6a9964dc94a8ef
3a110e6fa6f64290293b9c0094589e35cbd860f3e12090e944
c38eaaae8efcdc03e9b88f69f027b56970f37e8a7bc8055f5a
