92db26c879179a23ae5885c1629354a8b5cc82c501a8ffe02b
fe728e06344cea86ba0cf98f70dc2a9f9515b22d80957c46d6
c1bcdf30237e6e171a11fc34257134e0e66b42c2e19a551547
7e34c420be6ec1756c245190299762bc832b9143b2063ceac8
55c9413862193c12a3dae80718c564aa479bede4db77a1e7bf
4e487adf021a78b42143ecdfe7bff33be5d75f83eee8c46e8e
22af13d903bfcb2c4c471b5c89a35775248ce70a1dbaff154c
225416515e01fa9f4c118f98a4fce7f16a4ad5e209729d01d7
e3f7bf4fbd625745a31b0407edb504632ba8254dcd4f9052de
103e56c4012caef42bade3ac5ae6a1565c87e280b642c5bc3b
79585381027a541baddd9261556c2e8e39311cf9618e4fa13d
c1d19217fdc01cadba38370697476238b89ebe06f4dd31d15c
66421d9d3b5753f04601a6632d8dab33e18d03cad0dadb9d2b
5638cb8ecb900068c3af0f8bf01ef69c46b1c0ff4892c5aaee
f055bc15144a51c12bcb8301aa2135db9d537d13033d5d73df
6a67665af440f0bf30f5363a63040c7d5c5ff29acd9d8592ba
39ef5ad795b7a648d4bb8e1d05dd670fe12f94326817b8b7dc
c3f5d1b2e0796e35d95854a9f0ae52d61b57770fb9fa3c4609
35b7dea94c21eac02d576a4a1f3291ccbb5b10ed9f53b4df44
9eab38b9fa8c65ef281a359bb7fb14e2115de596a2f46bdb7a
5a3267f18e7288c078194f46cae32e736caba57b17094299b9
f180ceeef11345e5b7adbb173f786af240c77274cfc37dc7c6
afe5a04f57099e6fef48a3f36a9f87f7f45f75ae25dc357054
294995ca23a97200c420cf1cd2715d68080038a223ab0a84cc
7ed022e2728527f7927c35b5d3739d447d718f189ce8486172
34b4d407f2cf69d6139285d50987b8d094b418728e03a17bc4
c7f5fe035ca932a895c79cf75edf7810a43d952f29e0fc8ac2
891bdadb8843fcc0eb12ae39e97894af56f42d74453cefdd62
481c46901cd608e2e3baaccab9579c38e902ba5567b9bf70c4
44d8cf282c55d5296847b25b6870876ea2f67e8570f978ba62
82fcba340a75806e00199caea70bbd66675199a9c461fd7b0e
d1c3f63af613d9e6ce548afc636adec49d9087747df9af6feb
0ffe2db72a3c8f2823e2d5a62f87c61a86081177302d24b389
f68da3ba335fa2e4c01c92ebadcddf7a61ce66237310a0da38
c0e324cbc8aeddef3cf8682ecf6409a03e1c2d9efd2d38b5ac
430a5748d87028069165ba6a1f56fca427e88894d1d8f7d573
68c66f0d6ac5417b65bb03dfcdc5c9400aa2f717935cf7bb80
949b33e3473c07a859339060bdd297479cf9735076aca8b25d
0015a55daacb99a5cd4e45962291a67d460f9f6ea1e86156c2
774421aea41332f3882bdedfe535343694faee2d4a57b92a0b
