a485ea7cbb56900fc772180b9e4811aa001e137e237883c16c
95b6b9a261337690f4f73871e5e4bd2a97c24a5d0fc035de80
be41dbe52a1b3b1eb2c38486f726673d3280f8017043d369f0
60de03bcff94240bd022feb2ea5bd364c2b1bf0af1c1f39d1f
f7fce238913783be531bb770fb8136dd60291b369dc3fe0b4c
59d0ecfe4d1d0e04a59440b3f21845e8730ceeab901f0cd9ea
fdf1f0bd24a947b4ce4d6a013c596cd876adb03813d3ad412f
8437f7c48ea3f1742a242ddfa74044afffbebce67826e8f03c
1f1349796431b8c9aa39496b7b2662e88cf04ab787ae9d6f58
949b7b3f6680223a380cf049991a37aceee47b50dfd54aceb1
1d2aa43040ab269ede6f2e90a1c1025780c3069dfa7c2a0a18
d745ee9cd0398f8c6d7e6204058e5fe67b6e80af2b33fe9fc5
648e19185c38a600e5eef44dd03dece2c06e781c8c06979bea
588f1d2ab9011e9f921bf21f67b29e98ab524c55e6da6de2b1
4ee54a7afbedde3ac346447bc0e169ad6a24a19e1ff639b392
fd8812d55ec8b302dbcd4c0843b7ebab565a1a6e9c2e5c6a95
10c28b044d6c9fe9627f3ddc3823756ac154e2faba433840f0
94fe43a9cdba2c688135a7f03aec84507aa72face7e4be887f
ec1656be01a8ee59f3a3216be2d95d2ba93ce245d6eeb3d5fd
4e484568d26abacca1b06d3257c22e5ba71eef2a56c489edbe
f87806751f90c1ae95bb6036cbf91c842ea1fb3aa2c6bd108a
c619464cc9aeb43126150a84760b5e792026523f515af9d18c
d962a601cd868ca5eb494aabd7bbc2b2d8fe3672295fdeb6d3
73c6f7b7e93d4979fe4a59d8a0643effb614e99981bdd32d30
ca9575e7f65466104f402bad67a7ae3407afc486a137959dd1
b65e0e1650d2997de7c6096d8edc18d9203897d33832d749e9
a9ef5b776dcb1ad10cae1fd6505731287160e932ae833e591f
c3690147f26ca33de0c973af4c1617499b8127ddcb97265aa1
4326aeed9b911dddaf92ebbd37a964f86b442ccc24f39e2cbe
c13d6ee2a6f899633032200c643c2bc4e631ca81b2ff36a637
7d0c462b2f02d4d1f56e1d0d2aa31ae4b078d35317620a8d8d
c74c95f9fb18e79714d49333205497d76b55e46ff9e815ef6e
30c956ab24e7bba523d344c4147310dea629c4283a41481b80
bce59bbc8ce03f89cf9cf5dc39ab422163b6c53b5a7184cd18
153e424b42eb7db78dc32ecbc913b66ceeb07449bb4f9927a8
551e7261615843cd9c08c3698132d647da5eef501028b7d11a
dd67f756ff1a2e2c24cfd55a6b0d41b71bdfbd6a526f2708d8
97f55a517939219eea32c5e2650e6603d548e3c828792e820d
04e0b87a3a19b692988c5ac7ae5418a3ceb5bce802f2f419ce
74e34fc5bc657d2bd0372a32314317d2546756d725f795d5b8
