b144e0d69b8da3244e9dfa1d2235994041a3b73298f02829d4
3f428a8c7127beee5c5a16e0e93032194cd53e77605d5a56ff
9b1aa10eeceb4a0e1b3581277fdb929ac8525249bb89fee742
0df7c76a394064588e7c292ffafebdab6150d419b43799c47a
cadce398fc91caa692b23c6c2bdd109df42d7de06c54baf938
6aa02109b6055820858520680d1e4af363982abd9e1a19ead1
808162957e7ee8eb6edc6d1ff1fa75f0130c8288c60bf70f42
4788af230ad9169de43cde6f32d3e13532b8957034608d9d6a
26f858e6e76de6146e846fadd462370a67ce99a9239da3fe57
a169c6c4ea52329623f0a6ecb36edaf3e17b8437a4d841e848
f51eff760c6a67253cb71f86adb75be3169de85f673fc97c9d
8bdbd4c7e32ac5f4646817811488ba3f4418b443669f49f6eb
d894625b76cb772fe20fc8c48f5f50ca7a1716356b9af6f0fd
8169be51a15007d70a320f411cdfe684dfe027e79f05a4fd3c
44f22bb54dd65929db586e136bf4c9ede6a544a1fa0c3a4dcd
17bbf34d2f15f20d594be767b15ad206d2b27026eb8b91c175
60f5468413f300848eb00777db58f25b24a61133e7834c3f96
d9580fc47c2ff8a74007acb60ce237e16d57ec942a3eac8301
41394be64e707ff68b91cffe0549e04732dc3dab463c658ba9
0671c16f332e58acfaa533d0a6f8747735bc4c3e55df4d1ba7
43dc00607842c7cda12ed9a470150749b160181c6ee451ceed
90cb2ea978cf51af51735a64d3d135c59d37578aa680ee28c1
54f8ecd7d10eba7e43470d8edd3f761bf688cd512ae097dc04
194d94334cfb113400668fe475114eee31deb742c8a48a2756
9399f95fa8cf62d50bf3b710f1b9abc80d42e2b673c8d92677
4e84ef0b4c9aae5562e86b152a0733620438d1d572abcfb2ae
af2718fa4456dd25a31dbfe4a7ea8346cdaebbdd38fa366ae1
c4e18d9607f058661dfd42113533a1cac80b7ebae17547d94f
266cc4e3cc60e756924497eb2b4bf26dbb44459690d1031780
a228e52751145eea984ce9af268543c2ae499da8c1b0ec4acf
293cf850982b9076b12dd6ce158b3d7bef4dc8018e28513437
42756b5759fe923bc5d11e2eb37a2ba2138554847708021cbd
db8f3beefc5814dcb0b419dc41861c74ffdfae1cd7795baf42
d5460f66a8be640e37cac3245e9e708edfd993bab81de1b3d4
86132fe50bba7984aab198f49cef141fb3df05d07fa65ce2df
c10179ec9aad0c7eb49c748a9869b426918ee764e98e85ec5b
f51bc1eb0e3934d274f0b779dbb84dd9a5fb35013f0739cc88
8195998699194b37ae65014f4d0f614352ea8b6e0ff96e9f7a
16dc5fc189137c6a4803b52668d15af702d875daba32a4a5f5
26e468a055a6f66d5d0c1d0260ea4d898f45afaeac9ec7c405
