bd5a233fba7a6f01252fdf8062f1594e5a82da54570861db68
547fd5dea5826fc382f9f2fbb920ac3fa599a4d4f5f8f51706
77a6ee4d23182ea19b4f30e2f5ec613ddfd0918f695fdf9945
f32bd7444e296b74b529e8e4b0365147c838cec9ec1e6275ed
03569b089e84c3f07df236f13eec6ff1f2a3f0f181fcaf73f0
b295cf1003ecf2dd3a95a4e6eac7979060a9096a743c72caa2
9106602feb26c373633d1307721517cffd41c9a1ff5810504d
ebf1a85cacd319afcbc97cc5ad285f40c26321ccf56ca31348
301de00c442cf620d60e536611cb052a4f186d378fe0768900
42734f72c3bcc7a2783ad1c11e03a8d771da0888d8421317d1
e05caaa08653e68e3b02f24f2bc2aff50c53776dbcc9e2d8ec
43f884d674a30ecabf837c0141aeb716e8726fba065c750ee8
c30617ce57a6c73e921cd70a5779718ec26d5c01887b319a2c
ce6130574918316242142b33a5f57aa512d2bf7776021485a1
2a7c8d7a5c3f906ea00daf516b5b21a0ac96d9e47c645442f2
6e3c0c0d7521f8a66fc6cf18c058864fe0e538486b7904017d
8f6069b1097408bb0bad0138f6c0b2334915d7687caef8e7d8
2f90af925958300f861f9d9a1692392b6cf6b8283ca29eb1f6
ca69ad5ad8b7cd27c92fc4d39fd3e3d48ad04ff2bbd437a892
18d3593d14609e476b11606ba03b66f8082e0cd5d10cf5a08b
4135757221c340fabe5471181bfde78644526423dc7c3c00b6
96d595bbce5af60f2b05209904bad6399354ef27de83264f6f
42d7573a4078f595cff7bd9f172e5a82174cb6894e7dabe53d
e2da3ef628cf80d03dcb457e84e4c4609e51928f882fa790b1
506ae963e2e29f981b90bd82f9ac520de1ffff92c366dffd47
3a73354f2cdef6de95164c39c3d1d31f17ee6e178aa67bfbe4
e3d8163b2828308b2cb1b8777845bca11eff42678601b552e8
382685b2785831955cad615ad2a7f59b616242f085c09297e9
615a91dabcf41e4cbc128c983ef06a0df8bbd45259ebaaa88d
19a266e166906e3e8fd90804034ae915e46cb696d17193bef5
4f5a13286b0fdf89a120855b724774e988f7fdbe7ae8173313
2cc69bd3807125ecba909a5faae4848ff65d4f1509fa4434d2
15773a9d5b559e8d3dec8265eb8a2f2516e2b0bb55666b0930
2104916ac9af9adb0fa6ed1d32f8ef34991a0b6870dec17cb7
073f0869ccd04990cb971ce8b0796902c504c9757c5831ab6a
dd9787c4aed125a54a374de6768dc3fd14da58a238094db396
c3d6df75483ca41c955a7e55acade5f852d5c4d05b4e732aed
9577546cc9288d4e43edfa6e4b5813716b0fbf3e3e2711cd65
340546f431bcfc0a69ac29a560f613b0d3b96fe4be32311a35
0a8fc7d97b51274535e4309ae53c4cb580812103bf64cc05c5
