e790947b704d6112d5ffc5ce3bd870b08de79fe69bbd0c36ce
9b19fca062752a7be7ac13756808e21ff1e7ceb68bbf19ea7f
34e865afa8fde842721787af7328663dc825397a349424e0c5
3678e918a5b72faa67fd3c3ce07886813617d30275be867399
093e9ec67801d85298dd0b18b124e9f7f081971904575fecda
7c6f59a4b5e78e9d75b25accf5488265e060f6d813a97144df
4ca6bf9c930395803fc2f5d74e94f9cd8f65f962f05e3e94a2
b3a0a2be0eb580997ac27fe6a20125c51d9b249cd53d1f03fc
a6466e66ea1c5cf1953262dff7758fbb680fa0b1c8a2f7e3c2
04e1060dadc0939da6ac33e0e33832589e00e53c420e143fdf
2f2ec01b61cc0a38dc5c00604d1f9a5a1a0c0f6f3a2371c5a1
59f69fc82c3d379e1cf1ca9f7a87531dbde890df93a76e7e70
8db413cd69a6bd5a5cc0bf1e6c5a915a56c0f678e8d892d0a7
b313985d535650c14e9d8b56b0f71ec6f9670ac8c72aad495f
40c9890df760bd431959bf37896812f51298118fc88e4a08c0
096a6c37891b40b0aa5bcb9d31b54f3ea6d0e1424d796e8957
6c712b60d3e33afec030bc04013459baaac3d9cacc21d375cf
6f4e015f00b956611261fb455864b29e21eb7384d62b9dbe2e
3c853111b41a8635a4f1e23b72018f194cc955b3d88e4be9f8
5075ef1ab90bd97df64c68fe0bd8e5d1e6e76a0afb28ecbc0c
3b13bc92b6aace0a29d9f9f6d53e5e2257fe16e5624a9d5e01
ab94839b4383b10348e2cadb21613c35f70472f196e35e435d
db8ebcb24cd2f3b85240e66098800067e3ee828ce96280e399
0468bd609b7782af7aa7d83c62a290d91c7f757ee9b49dc3d7
ac347942404bd13eb903313823028a4368a5b1817dc1c73449
83c15d50f107951f871c4003757376507192e5efa78a9b8698
d125a0fdb47ad528e24ab6ca3215d2e2aff1cddb5aecc8c421
b443001ab432bd9cf6cc32d964d6f44835e16bff23604de7ce
5b912e845ce5588906e5a16be7551a6f0203abde7064a5fc56
a6edec22fd0b68ff83b3e890f063127011ad58438fae2b1b66
61f24d1f2ea753baadb0f2693737a030b2f595e98f213eb9f0
5367d158b5b8eb274218f58108c412fa285422fd95a41ed140
396d0463f5dc791afb80a9851d0c9da4b1a377332d560e0316
07f423969e3ca1404fd3c7d6d8b52b0847855ee692476f6b69
c0e7aabbc388aea82a1589260c6ddf5dfc1e5cea5df716deb6
9c6d3d40430a27bc9ddae901e850ef495bc8693a4771bdd7ab
16c4a95be1c728921e6bd4a0ad693d20063fc06bd3060c591f
3286ff02558e1b22ef1c6c72705418321a441dd57db582eb1c
6a6fb6d33a46f5ef7ed0c4e6461ac2cddd8959bf47c5f8d723
9f440b979cc680798292fee5ff5f89c8d5ab556720ac01a918
