f06225bab8f577c91098cdf767fbc575a074b8df9f026dcd8b
a11c191b982a565806541f1091cf8ac842d480d428df47f589
bca53bf7feb7e17ecbad0893d04bc0baeffb7392b83e994247
95c63165a37e0ddff3d5ba1d4467c523cb7aada2f4c8ed0001
74ca705fdd13629ed9f3d4c164d73b0e0d1edbfb3692790d41
fd177ad5cb1212c3f5adbcca8cfc9e74b79cc462861d39d600
69336ec19918c4ef765f2f3e136c3dc1f8b6008623c04ddf0f
936c479bcc6eca0b8134d416eb0600d8547e4a0471044697da
f50f9e04ecd06ce0b28ffed1fe3f83ae923e01a5df4dea0b96
e9d9cb0f60d5536f3b454cbe804c8cf67274552c68d6923a80
4f2b69cb9e520fbf98157cea54931ebb7be96c670f51ef4418
24ab9302dd8f9a0384b4406a7a057096087ffef8f6186ba1e8
859be773d7d16731f1dd167c4714cf72fbae600ea8975a8aa3
41f2c73885afddeff21b63b2ec09bc530b6cf4865a2de99692
a5f776c65ead48a94fcb852762bbb397acd67063080a302b0a
ac4498c6b142752b0710d7c738946fd9c19bb7cc36cbe99764
a7b9fe06b89f2bad93136a46d9e8ff7846b98e025f315cd7a8
3c2715e996aab6f7acd80fe62af6b999996459e7663bc7b5c0
052dc62fb6f11142c01305be2ca85294bcb49564eaa3a00f10
daacd397b67bb30a6298c64e2d86b6ff57ab2a176275cb2379
8de967e885c02a0cba567611f9d7df91309ba77e97e4b8b1fb
8ffdd04e19aa0bca3eba64d049ae6cc92811c96c20a3fb000e
92862a95652731a3ec3718a053fe9b0daaa5116580ef4364e1
a26d680fea5d0b19f923fc611203f2d6ae1a92d4b4c64f128b
51b1682f1bfb793091c070e7fe69a4e6a8e47c2d437c30e4bc
077c45da00a37f7afed75440518f3d94fcba5b9feff322ee07
07d4479b5585f1c035ba11ec5ea647a4aa4e5f4e16ff902dc7
a43abcc4bc438f788de21efaf97d4ea340e22864e5bdd28c5d
b8f0274407aa3f51e59402d299c530e267e72552670440da46
32313ed81aa1c558bcd334d875ab05e31b59e6dceaa9dcdf7a
a6c3fceff93a665c36f760b440b7b30956e5d6c1d78c9e9980
c3251fc95ee8f21e483dca24f264ebba45e015323898220b85
6e89ba9df0fc6e51eb3d5961e8d220fd848747fc54e2570818
9c65a4917473f4a65eb7900ee0479f40b8752699357c402e92
225a68d3df22185221a470bf597e22b22b9d22eb353447158e
3f75caef614f46a5cec8a20c988f03830117735de4065491a5
cd317667e9ea737509179510d4a48ca86c10e72e534b421902
0fbec07af7d7fddf58b02a71dd9319638084873e538dc99db9
a3c226a601408dce18ff523151bca553baff7fe34aab3da9f7
0c1d220e00e66e9d876ff529528c11ee1a04f39c7c1ecfcb97
